2.06682610512
2.01317214966
1.92032790184
2.06353187561
1.9677670002
1.90030193329
2.1845998764
2.0357670784
1.95790100098
1.99438905716
1.93277597427
2.03824400902
2.02921199799
1.97756004333
1.91257596016
1.9628739357
2.03263783455
1.98769497871
1.98969292641
2.02927684784
1.98515200615
2.1189661026
1.9632999897
1.99858617783
2.02476000786
1.96691799164
1.99951291084
2.05703306198
2.02760100365
2.0706808567
1.97743391991
2.0642209053
2.03268814087
2.08266401291
1.94120597839
2.03678512573
1.99722218513
1.97833418846
2.02177214622
1.97070097923
1.90130710602
2.02440094948
1.94339203835
1.93485093117
1.92674589157
1.96380281448
1.97722387314
2.02320289612
2.03206205368
2.04281616211
1.96463084221
1.95108819008
2.01503396034
1.92040705681
1.96287107468
2.0055668354
2.10175204277
1.94214296341
1.9503660202
2.043861866
2.07566595078
2.08115100861
2.09085679054
1.95397591591
1.97835803032
2.01323103905
1.98877906799
2.02880501747
1.99765777588
2.05134487152
2.01417708397
2.07393288612
2.05891799927
2.04234695435
2.01485109329
2.06904101372
1.91166210175
1.95983910561
1.99656414986
2.12839913368
2.12094306946
2.12829899788
2.03606891632
2.05450105667
2.01762104034
2.05235886574
2.00931382179
2.05611300468
1.94458413124
1.98862886429
1.98500704765
1.98278093338
1.9621989727
1.99534082413
2.01435089111
1.94604110718
1.9536318779
1.97400689125
1.94648790359
2.06977105141
1.99846601486
2.00026202202
2.02359294891
2.01067304611
2.04075098038
2.04035305977
2.01156806946
2.0764939785
1.96298694611
2.13005495071
2.01024794579
2.01199793816
1.93742203712
2.0201189518
2.09123706818
2.10498094559
1.98393321037
1.97424817085
1.95108294487
1.99682497978
1.97270894051
1.96598005295
2.03745603561
1.94768881798
2.02043604851
1.96104502678
1.96116900444
2.06780099869
2.00080013275
1.90867400169
2.01027393341
2.07709598541
2.03620195389
2.01920413971
2.06581306458
1.98136782646
2.03868508339
2.00422906876
1.96748590469
1.93427109718
2.05458402634
1.98125696182
1.95825481415
1.98053908348
1.99494290352
1.94136309624
2.00576901436
2.02761387825
1.98819804192
1.98594689369
2.08394193649
2.01860308647
2.03984093666
1.92504096031
1.96785879135
1.97964787483
1.93635296822
1.98007106781
1.98493599892
1.972230196
1.97401309013
2.03878617287
2.0092279911
2.04305815697
2.03252601624
1.97382712364
2.08532500267
1.95619606972
2.01882791519
1.96372318268
2.00742721558
2.00066184998
1.97771000862
2.06477093697
1.97783303261
1.98758602142
1.95870804787
2.03630113602
1.95447993279
1.9983651638
2.14231300354
1.98390507698
1.96395397186
1.96412611008
2.18980693817
1.97440385818
1.98720288277
2.08495497704
2.02646994591
1.99775099754
1.99293398857
1.97606897354
2.00140690804
2.0324678421
2.0016579628
2.06406021118
2.08928108215
2.05899786949
2.04249501228
2.03638291359
