1.66388702393
1.59599089622
1.66363096237
1.69963383675
1.63403511047
1.64168310165
1.66789698601
1.57731890678
1.56424689293
1.74056696892
1.70532202721
1.59862494469
1.5631480217
1.62306404114
1.56310796738
1.62598514557
1.66994595528
1.66734099388
1.60201787949
1.59668302536
1.54951095581
1.66848611832
1.63835811615
1.62904000282
1.58463215828
1.59641313553
1.63605904579
1.54574203491
1.7494161129
1.67079997063
1.58448696136
1.66331887245
1.58046793938
1.68938684464
1.56060695648
1.51919007301
1.64195799828
1.52522611618
1.55180621147
1.58808803558
1.63025403023
1.7631149292
1.68047690392
1.72105312347
1.65254402161
1.63340520859
1.65458798409
1.70557188988
1.63414001465
1.60762286186
1.59348392487
1.56507301331
1.60147309303
1.63752794266
1.58165097237
1.65558290482
1.52520895004
1.67454886436
1.61249899864
1.68949389458
1.61239099503
1.58838796616
1.55286502838
1.60561704636
1.66192483902
1.58670091629
1.54677796364
1.72628808022
1.65065288544
1.69493699074
1.52892804146
1.65022397041
1.49372220039
1.68988108635
1.65555214882
1.69218111038
1.63534998894
1.68954706192
1.6082110405
1.5929889679
1.62141895294
1.62921094894
1.64449095726
1.67963910103
1.61262607574
1.645788908
1.63143610954
1.61803007126
1.63670778275
1.66284894943
1.69723892212
1.65763497353
1.65072917938
1.63302302361
1.59178900719
1.61862397194
1.63661193848
1.59543514252
1.62144899368
1.57588386536
1.60305690765
1.60772395134
1.58950304985
1.7114751339
1.67084002495
1.62780594826
1.62257695198
1.63891887665
1.60887503624
1.64789509773
1.59989190102
1.64684104919
1.56158494949
1.67801380157
1.59586000443
1.62512898445
1.59874486923
1.58644390106
1.69337105751
1.6612200737
1.63067817688
1.56728386879
1.59097409248
1.68992114067
1.52667284012
1.5990729332
1.68001914024
1.60493612289
1.64803695679
1.58951497078
1.64784097672
1.73172092438
1.62669301033
1.67006111145
1.51877689362
1.61133313179
1.63021612167
1.6044459343
1.6534318924
1.71985006332
1.53014802933
1.60604906082
1.57482004166
1.55458402634
1.69321894646
1.61010909081
1.58636689186
1.67817020416
1.52920818329
1.55762600899
1.69490909576
1.69996500015
1.6158080101
1.64285302162
1.67531108856
1.64704704285
1.52050495148
1.61725783348
1.59712505341
1.61124396324
1.68008112907
1.60733509064
1.63035202026
1.67638492584
1.67885518074
1.69906401634
1.60655498505
1.60088396072
1.58651304245
1.69215512276
1.60091590881
1.65551114082
1.68332409859
1.65668201447
1.59785485268
1.62123703957
1.60914897919
1.65882492065
1.67247080803
1.60396313667
1.54599404335
1.63686490059
1.6677479744
1.58018398285
1.68912315369
1.63228487968
1.60431003571
1.62364006042
1.69330716133
1.60088896751
1.65694308281
1.57671499252
1.5776078701
1.66828417778
1.46189498901
1.621311903
1.57167196274
1.60721206665
1.63251399994
1.63119387627
