1.14638900757
1.2049138546
1.19815087318
1.10150980949
1.30427312851
1.08062005043
1.09393000603
1.24286389351
1.17268013954
1.28591108322
1.25089001656
1.28806495667
1.06811904907
1.06007504463
1.12730693817
1.18461298943
1.18585515022
1.15829801559
1.19710493088
1.15646696091
1.17561101913
1.10265898705
1.20363402367
1.1268260479
1.13656115532
1.21487402916
1.23952317238
1.11831307411
1.23439502716
1.20828700066
1.17198896408
1.18142986298
1.16360807419
1.17797684669
1.14883899689
1.10051488876
1.16558003426
1.22450304031
1.0566380024
1.12271618843
1.12754821777
1.058344841
1.17865395546
1.14947605133
1.04971909523
1.24494719505
1.21039891243
1.11844301224
1.23446011543
1.14425897598
1.21476507187
1.25582504272
1.08372497559
1.16124892235
1.12585496902
1.07459187508
1.18937802315
1.23744010925
1.09496808052
1.09657096863
1.00878095627
1.16443896294
1.11569595337
1.10356402397
1.25828099251
1.23857593536
1.12616491318
1.14635491371
1.23918390274
1.26264715195
1.11276316643
1.13720703125
1.19444108009
1.21396780014
1.33803009987
1.09690093994
1.12308192253
1.12584018707
1.07227706909
1.27383494377
1.18101906776
1.12821507454
1.17348098755
1.20152497292
1.07610201836
1.22016596794
1.19419288635
1.07011508942
1.24172902107
1.18029117584
1.15431785583
1.22898888588
1.19674181938
1.25656819344
1.16291213036
1.04449105263
1.14810204506
1.26355290413
1.18127608299
1.07087397575
1.18749499321
1.2330520153
1.11300802231
1.16815304756
1.16976714134
1.21646404266
1.19188499451
1.19565296173
1.17176890373
1.10076618195
1.18524503708
1.09317493439
1.31630992889
1.20868110657
1.09361696243
1.12401080132
1.14391183853
1.16517710686
1.00218510628
1.17072796822
1.17121911049
1.27076911926
1.20905590057
1.18214511871
1.09367799759
1.15949082375
1.05657982826
1.08216810226
1.1663081646
1.10587692261
1.17660307884
1.04632806778
1.13707995415
1.10137820244
1.15841293335
1.06813907623
1.01589298248
1.20559096336
1.02707314491
1.18993616104
1.09551787376
1.24737715721
1.19064497948
1.10806584358
1.13270401955
1.18504500389
1.23262095451
1.18848800659
1.25697302818
1.06541800499
1.3389980793
1.03292512894
1.14334607124
1.11535906792
1.22162413597
1.29877400398
1.2852230072
1.04815506935
1.15854597092
1.03064608574
1.20548796654
1.22285795212
1.02728796005
1.09094882011
1.33573508263
1.20806121826
1.29227614403
1.11309099197
1.29686188698
1.07361292839
1.14930582047
1.16311001778
1.06434798241
1.21816301346
1.21103000641
1.25832414627
1.23496317863
1.13503098488
1.14425206184
1.07728981972
1.15261411667
1.08408594131
1.15503501892
1.25370597839
1.15199708939
1.18548893929
1.21917390823
1.26532793045
1.13130402565
1.17159080505
1.06110811234
1.13489294052
1.18466091156
1.19901108742
1.17914009094
1.06821894646
1.24668192863
1.26650595665
1.31361293793
1.07309603691
